....................
----------------------------------------------------------------------
Ran 20 tests in 210.001s

OK
Name             Stmts   Miss Branch BrPart  Cover   Missing
------------------------------------------------------------
Collatz.py          28      2     10      1    92%   50-51
TestCollatz.py      91      4      2      0    96%   63-66
------------------------------------------------------------
TOTAL              119      6     12      1    95%